{
    "type": "FeatureCollection",
    "features": [
        {
            "type": "Feature",
            "properties": {
                "name": "ifba.edu.br",
                "initial": "I",
                "state": "BA",
                "gafam": false,
                "mx": "carteiro.ifba.edu.br.",
                "provider": "Outro"
            },
            "geometry": {
                "type": "Point",
                "coordinates": [
                    "-38.500562",
                    "-12.962633"
                ]
            }
        },
        {
            "type": "Feature",
            "properties": {
                "name": "ifbaiano.edu.br",
                "initial": "I",
                "state": "BA",
                "gafam": false,
                "mx": "mx.ifbaiano.edu.br.",
                "provider": "Outro"
            },
            "geometry": {
                "type": "Point",
                "coordinates": [
                    "-38.438245",
                    "-12.971419"
                ]
            }
        },
        {
            "type": "Feature",
            "properties": {
                "name": "ifes.edu.br",
                "initial": "I",
                "state": "ES",
                "gafam": false,
                "mx": "bruna.ifes.edu.br.",
                "provider": "Outro"
            },
            "geometry": {
                "type": "Point",
                "coordinates": [
                    "-40.4961",
                    "-20.3903"
                ]
            }
        },
        {
            "type": "Feature",
            "properties": {
                "name": "ifpa.edu.br",
                "initial": "I",
                "state": "Par\u00e1",
                "gafam": false,
                "mx": "mail.ifpa.edu.br.",
                "provider": "Outro"
            },
            "geometry": {
                "type": "Point",
                "coordinates": [
                    "-48.461156",
                    "-1.437891"
                ]
            }
        },
        {
            "type": "Feature",
            "properties": {
                "name": "iff.edu.br",
                "initial": "I",
                "state": "RJ",
                "gafam": false,
                "mx": "yoda.iff.edu.br.",
                "provider": "Outro"
            },
            "geometry": {
                "type": "Point",
                "coordinates": [
                    "-41.324230 ",
                    "-21.735070"
                ]
            }
        },
        {
            "type": "Feature",
            "properties": {
                "name": "ifrn.edu.br",
                "initial": "I",
                "state": "RN",
                "gafam": false,
                "mx": "dallas.ifrn.edu.br.",
                "provider": "Outro"
            },
            "geometry": {
                "type": "Point",
                "coordinates": [
                    "-36.6344",
                    "-5.1150"
                ]
            }
        },
        {
            "type": "Feature",
            "properties": {
                "name": "ifsul.edu.br",
                "initial": "I",
                "state": "RS",
                "gafam": false,
                "mx": "ifs00sv010.ifsul.edu.br.",
                "provider": "Outro"
            },
            "geometry": {
                "type": "Point",
                "coordinates": [
                    "-52.3410",
                    "-31.7700"
                ]
            }
        },
        {
            "type": "Feature",
            "properties": {
                "name": "ifsc.edu.br",
                "initial": "I",
                "state": "SC",
                "gafam": false,
                "mx": "zimbra.ifsc.edu.br.",
                "provider": "Outro"
            },
            "geometry": {
                "type": "Point",
                "coordinates": [
                    "-48.543080 ",
                    "-27.594331"
                ]
            }
        },
        {
            "type": "Feature",
            "properties": {
                "name": "ifsp.edu.br",
                "initial": "I",
                "state": "SP",
                "gafam": false,
                "mx": "email.ifsp.edu.br.",
                "provider": "Outro"
            },
            "geometry": {
                "type": "Point",
                "coordinates": [
                    "-46.6361",
                    "-23.5475"
                ]
            }
        }
    ]
}