{
    "type": "FeatureCollection",
    "features": [
        {
            "type": "Feature",
            "properties": {
                "name": "furg.br",
                "initial": "F",
                "state": "RS",
                "gafam": false,
                "mx": "mail1.furg.br.",
                "provider": "Outro"
            },
            "geometry": {
                "type": "Point",
                "coordinates": [
                    " -52.0989461",
                    "-32.0324689"
                ]
            }
        },
        {
            "type": "Feature",
            "properties": {
                "name": "jatai.ufg.br",
                "initial": "F",
                "state": "GO",
                "gafam": false,
                "mx": "mx.jatai.ufg.br.",
                "provider": "Outro"
            },
            "geometry": {
                "type": "Point",
                "coordinates": [
                    "-51.72748",
                    "-17.88217"
                ]
            }
        },
        {
            "type": "Feature",
            "properties": {
                "name": "ufabc.edu.br",
                "initial": "F",
                "state": "SP",
                "gafam": false,
                "mx": "smtp.ufabc.edu.br.",
                "provider": "Outro"
            },
            "geometry": {
                "type": "Point",
                "coordinates": [
                    " -46.545282",
                    "-23.6609906"
                ]
            }
        },
        {
            "type": "Feature",
            "properties": {
                "name": "ufac.br",
                "initial": "F",
                "state": "AC",
                "gafam": false,
                "mx": "mail.ufac.br.",
                "provider": "Outro"
            },
            "geometry": {
                "type": "Point",
                "coordinates": [
                    " -67.8220778",
                    "-9.9765362"
                ]
            }
        },
        {
            "type": "Feature",
            "properties": {
                "name": "ufba.br",
                "initial": "F",
                "state": "BA",
                "gafam": false,
                "mx": "mx.ufba.br.",
                "provider": "Outro"
            },
            "geometry": {
                "type": "Point",
                "coordinates": [
                    " -38.5069259",
                    "-13.0026124"
                ]
            }
        },
        {
            "type": "Feature",
            "properties": {
                "name": "ufcg.edu.br",
                "initial": "F",
                "state": "PB",
                "gafam": false,
                "mx": "mta1.ufcg.edu.br.",
                "provider": "Outro"
            },
            "geometry": {
                "type": "Point",
                "coordinates": [
                    "-37.27643",
                    "-7.05824"
                ]
            }
        },
        {
            "type": "Feature",
            "properties": {
                "name": "ufcspa.edu.br",
                "initial": "F",
                "state": "RS",
                "gafam": false,
                "mx": "prometeu.ufcspa.edu.br.",
                "provider": "Outro"
            },
            "geometry": {
                "type": "Point",
                "coordinates": [
                    "-51.22069",
                    "-30.03142"
                ]
            }
        },
        {
            "type": "Feature",
            "properties": {
                "name": "ufes.br",
                "initial": "F",
                "state": "ES",
                "gafam": false,
                "mx": "antispam4.ufes.br.",
                "provider": "Outro"
            },
            "geometry": {
                "type": "Point",
                "coordinates": [
                    " -40.2971673",
                    "-20.2657683"
                ]
            }
        },
        {
            "type": "Feature",
            "properties": {
                "name": "uff.br",
                "initial": "F",
                "state": "RJ",
                "gafam": false,
                "mx": "vm.uff.br.",
                "provider": "Outro"
            },
            "geometry": {
                "type": "Point",
                "coordinates": [
                    " -43.1154552",
                    "-22.8832371"
                ]
            }
        },
        {
            "type": "Feature",
            "properties": {
                "name": "uffs.edu.br",
                "initial": "F",
                "state": "SC",
                "gafam": false,
                "mx": "smtp.uffs.edu.br.",
                "provider": "Outro"
            },
            "geometry": {
                "type": "Point",
                "coordinates": [
                    "-52.61662",
                    "-27.10576"
                ]
            }
        },
        {
            "type": "Feature",
            "properties": {
                "name": "ufjf.br",
                "initial": "F",
                "state": "MG",
                "gafam": false,
                "mx": "lyra2.cpd.ufjf.br.",
                "provider": "Outro"
            },
            "geometry": {
                "type": "Point",
                "coordinates": [
                    " -43.3501129",
                    "-21.7609533"
                ]
            }
        },
        {
            "type": "Feature",
            "properties": {
                "name": "ufmg.br",
                "initial": "F",
                "state": "MG",
                "gafam": false,
                "mx": "mail5.ufmg.br.",
                "provider": "Outro"
            },
            "geometry": {
                "type": "Point",
                "coordinates": [
                    " -43.9450948",
                    "-19.9227318"
                ]
            }
        },
        {
            "type": "Feature",
            "properties": {
                "name": "ufmt.br",
                "initial": "F",
                "state": "MT",
                "gafam": false,
                "mx": "bororo.cpd.ufmt.br.",
                "provider": "Outro"
            },
            "geometry": {
                "type": "Point",
                "coordinates": [
                    " -56.0991301",
                    "-15.5986686"
                ]
            }
        },
        {
            "type": "Feature",
            "properties": {
                "name": "ufob.edu.br",
                "initial": "F",
                "state": "BA",
                "gafam": false,
                "mx": "mail.ufob.edu.br.",
                "provider": "Outro"
            },
            "geometry": {
                "type": "Point",
                "coordinates": [
                    "-44.19403",
                    "-13.39100"
                ]
            }
        },
        {
            "type": "Feature",
            "properties": {
                "name": "ufopa.edu.br",
                "initial": "F",
                "state": "PA",
                "gafam": false,
                "mx": "mail.ufopa.edu.br.",
                "provider": "Outro"
            },
            "geometry": {
                "type": "Point",
                "coordinates": [
                    "-54.73160",
                    "-2.42859"
                ]
            }
        },
        {
            "type": "Feature",
            "properties": {
                "name": "ufpb.br",
                "initial": "F",
                "state": "PB",
                "gafam": false,
                "mx": "email.ufpb.br.",
                "provider": "Outro"
            },
            "geometry": {
                "type": "Point",
                "coordinates": [
                    " -34.8897979",
                    "-7.1147841"
                ]
            }
        },
        {
            "type": "Feature",
            "properties": {
                "name": "ufpel.edu.br",
                "initial": "F",
                "state": "RS",
                "gafam": false,
                "mx": "mx2.ufpel.edu.br.",
                "provider": "Outro"
            },
            "geometry": {
                "type": "Point",
                "coordinates": [
                    " -52.3411543",
                    "-31.7700104"
                ]
            }
        },
        {
            "type": "Feature",
            "properties": {
                "name": "ufpi.br",
                "initial": "F",
                "state": "PI",
                "gafam": false,
                "mx": "mail.ufpi.br.",
                "provider": "Outro"
            },
            "geometry": {
                "type": "Point",
                "coordinates": [
                    " -42.809588",
                    "-5.0896403"
                ]
            }
        },
        {
            "type": "Feature",
            "properties": {
                "name": "ufra.edu.br",
                "initial": "F",
                "state": "PA",
                "gafam": false,
                "mx": "backup.ufra.edu.br.",
                "provider": "Outro"
            },
            "geometry": {
                "type": "Point",
                "coordinates": [
                    "-48.43460",
                    "-1.45877"
                ]
            }
        },
        {
            "type": "Feature",
            "properties": {
                "name": "ufrb.edu.br",
                "initial": "F",
                "state": "BA",
                "gafam": false,
                "mx": "mx.ufrb.edu.br.",
                "provider": "Outro"
            },
            "geometry": {
                "type": "Point",
                "coordinates": [
                    " -39.1053665",
                    "-12.6722649"
                ]
            }
        },
        {
            "type": "Feature",
            "properties": {
                "name": "ufrgs.br",
                "initial": "F",
                "state": "RS",
                "gafam": false,
                "mx": "mx4.ufrgs.br.",
                "provider": "Outro"
            },
            "geometry": {
                "type": "Point",
                "coordinates": [
                    "-51.22001",
                    "-30.03330"
                ]
            }
        },
        {
            "type": "Feature",
            "properties": {
                "name": "ufrj.br",
                "initial": "F",
                "state": "RJ",
                "gafam": false,
                "mx": "smtp2.ufrj.br.",
                "provider": "Outro"
            },
            "geometry": {
                "type": "Point",
                "coordinates": [
                    " -43.2357795975238",
                    "-22.91117095"
                ]
            }
        },
        {
            "type": "Feature",
            "properties": {
                "name": "ufrn.br",
                "initial": "F",
                "state": "RN",
                "gafam": false,
                "mx": "tapioca.ufrn.br.",
                "provider": "Outro"
            },
            "geometry": {
                "type": "Point",
                "coordinates": [
                    " -35.2080905",
                    "-5.805398"
                ]
            }
        },
        {
            "type": "Feature",
            "properties": {
                "name": "ufrr.br",
                "initial": "F",
                "state": "RR",
                "gafam": false,
                "mx": "mta4.ufrr.br.",
                "provider": "Outro"
            },
            "geometry": {
                "type": "Point",
                "coordinates": [
                    " -60.6724479",
                    "2.8208017"
                ]
            }
        },
        {
            "type": "Feature",
            "properties": {
                "name": "ufrrj.br",
                "initial": "F",
                "state": "RJ",
                "gafam": false,
                "mx": "mailscan.ufrrj.br.",
                "provider": "Outro"
            },
            "geometry": {
                "type": "Point",
                "coordinates": [
                    " -43.2093727",
                    "-22.9110137"
                ]
            }
        },
        {
            "type": "Feature",
            "properties": {
                "name": "ufs.br",
                "initial": "F",
                "state": "SE",
                "gafam": false,
                "mx": "corvo.ufs.br.",
                "provider": "Outro"
            },
            "geometry": {
                "type": "Point",
                "coordinates": [
                    " -37.20436",
                    "-11.008443"
                ]
            }
        },
        {
            "type": "Feature",
            "properties": {
                "name": "ufsb.edu.br",
                "initial": "F",
                "state": "BA",
                "gafam": false,
                "mx": "mailscan-in.serpro.gov.br.",
                "provider": "Outro"
            },
            "geometry": {
                "type": "Point",
                "coordinates": [
                    "-39.3405",
                    "-14.8449"
                ]
            }
        },
        {
            "type": "Feature",
            "properties": {
                "name": "ufsc.br",
                "initial": "F",
                "state": "SC",
                "gafam": false,
                "mx": "mx.mail.ufsc.br.",
                "provider": "Outro"
            },
            "geometry": {
                "type": "Point",
                "coordinates": [
                    " -48.5496098",
                    "-27.5973002"
                ]
            }
        },
        {
            "type": "Feature",
            "properties": {
                "name": "ufu.br",
                "initial": "F",
                "state": "MG",
                "gafam": false,
                "mx": "mx.ufu.br.",
                "provider": "Outro"
            },
            "geometry": {
                "type": "Point",
                "coordinates": [
                    " -48.2576169637655",
                    "-18.91844615"
                ]
            }
        },
        {
            "type": "Feature",
            "properties": {
                "name": "ufvjm.edu.br",
                "initial": "F",
                "state": "MG",
                "gafam": false,
                "mx": "smtp.ufvjm.edu.br.",
                "provider": "Outro"
            },
            "geometry": {
                "type": "Point",
                "coordinates": [
                    " -43.6006487",
                    "-18.2440862"
                ]
            }
        },
        {
            "type": "Feature",
            "properties": {
                "name": "unifal-mg.edu.br",
                "initial": "F",
                "state": "MG",
                "gafam": false,
                "mx": "webmail.unifal-mg.edu.br.",
                "provider": "Outro"
            },
            "geometry": {
                "type": "Point",
                "coordinates": [
                    " -45.9446866",
                    "-21.4439836"
                ]
            }
        },
        {
            "type": "Feature",
            "properties": {
                "name": "unifap.br",
                "initial": "F",
                "state": "AP",
                "gafam": false,
                "mx": "mail.unifap.br.",
                "provider": "Outro"
            },
            "geometry": {
                "type": "Point",
                "coordinates": [
                    " -51.0693238",
                    "0.0460699"
                ]
            }
        },
        {
            "type": "Feature",
            "properties": {
                "name": "unifesspa.edu.br",
                "initial": "F",
                "state": "PA",
                "gafam": false,
                "mx": "cedro.unifesspa.edu.br.",
                "provider": "Outro"
            },
            "geometry": {
                "type": "Point",
                "coordinates": [
                    "-49.903460",
                    "-5.350646"
                ]
            }
        },
        {
            "type": "Feature",
            "properties": {
                "name": "unila.edu.br",
                "initial": "F",
                "state": "PR",
                "gafam": false,
                "mx": "mercurio.unila.edu.br.",
                "provider": "Outro"
            },
            "geometry": {
                "type": "Point",
                "coordinates": [
                    "-54.5875",
                    "-25.4410"
                ]
            }
        },
        {
            "type": "Feature",
            "properties": {
                "name": "univasf.edu.br",
                "initial": "F",
                "state": "PE",
                "gafam": false,
                "mx": "juquira.univasf.edu.br.",
                "provider": "Outro"
            },
            "geometry": {
                "type": "Point",
                "coordinates": [
                    " -40.5069248",
                    "-9.3899401"
                ]
            }
        },
        {
            "type": "Feature",
            "properties": {
                "name": "utfpr.edu.br",
                "initial": "F",
                "state": "PR",
                "gafam": false,
                "mx": "spamfirewall2.utfpr.edu.br.",
                "provider": "Outro"
            },
            "geometry": {
                "type": "Point",
                "coordinates": [
                    " -49.272373",
                    "-25.4286927"
                ]
            }
        }
    ]
}