{
    "type": "FeatureCollection",
    "features": [
        {
            "type": "Feature",
            "properties": {
                "name": "uncisal.edu.br",
                "initial": "E",
                "state": "AL",
                "gafam": true,
                "mx": "alt2.aspmx.l.google.com.",
                "provider": "Google"
            },
            "geometry": {
                "type": "Point",
                "coordinates": [
                    "-35.75889",
                    "-9.67313"
                ]
            }
        },
        {
            "type": "Feature",
            "properties": {
                "name": "famerp.br",
                "initial": "E",
                "state": "SP",
                "gafam": true,
                "mx": "famerp-br.mail.protection.outlook.com.",
                "provider": "Microsoft"
            },
            "geometry": {
                "type": "Point",
                "coordinates": [
                    "-49.39625",
                    "-20.82765"
                ]
            }
        },
        {
            "type": "Feature",
            "properties": {
                "name": "udesc.br",
                "initial": "E",
                "state": "SC",
                "gafam": true,
                "mx": "udesc-br.mail.protection.outlook.com.",
                "provider": "Microsoft"
            },
            "geometry": {
                "type": "Point",
                "coordinates": [
                    "-48.85516",
                    "-26.25319"
                ]
            }
        },
        {
            "type": "Feature",
            "properties": {
                "name": "uea.edu.br",
                "initial": "E",
                "state": "AM",
                "gafam": true,
                "mx": "alt3.aspmx.l.google.com.",
                "provider": "Google"
            },
            "geometry": {
                "type": "Point",
                "coordinates": [
                    " -59.9865291",
                    "-3.1328619"
                ]
            }
        },
        {
            "type": "Feature",
            "properties": {
                "name": "ueap.edu.br",
                "initial": "E",
                "state": "AP",
                "gafam": true,
                "mx": "aspmx3.googlemail.com.",
                "provider": "Google"
            },
            "geometry": {
                "type": "Point",
                "coordinates": [
                    "-51.05562",
                    "0.03806"
                ]
            }
        },
        {
            "type": "Feature",
            "properties": {
                "name": "uece.br",
                "initial": "E",
                "state": "CE",
                "gafam": true,
                "mx": "alt1.aspmx.l.google.com.",
                "provider": "Google"
            },
            "geometry": {
                "type": "Point",
                "coordinates": [
                    " -38.5217989",
                    "-3.7304512"
                ]
            }
        },
        {
            "type": "Feature",
            "properties": {
                "name": "uefs.br",
                "initial": "E",
                "state": "BA",
                "gafam": true,
                "mx": "aspmx2.l.google.com.",
                "provider": "Google"
            },
            "geometry": {
                "type": "Point",
                "coordinates": [
                    " -38.9598047",
                    "-12.2578934"
                ]
            }
        },
        {
            "type": "Feature",
            "properties": {
                "name": "ueg.br",
                "initial": "E",
                "state": "GO",
                "gafam": true,
                "mx": "aspmx.l.google.com.",
                "provider": "Google"
            },
            "geometry": {
                "type": "Point",
                "coordinates": [
                    " -48.9525756",
                    "-16.3332828"
                ]
            }
        },
        {
            "type": "Feature",
            "properties": {
                "name": "uel.br",
                "initial": "E",
                "state": "PR",
                "gafam": true,
                "mx": "alt2.aspmx.l.google.com.",
                "provider": "Google"
            },
            "geometry": {
                "type": "Point",
                "coordinates": [
                    " -51.1595023",
                    "-23.3112878"
                ]
            }
        },
        {
            "type": "Feature",
            "properties": {
                "name": "uem.br",
                "initial": "E",
                "state": "PR",
                "gafam": true,
                "mx": "alt1.aspmx.l.google.com.",
                "provider": "Google"
            },
            "geometry": {
                "type": "Point",
                "coordinates": [
                    " -51.9382846",
                    "-23.4251041"
                ]
            }
        },
        {
            "type": "Feature",
            "properties": {
                "name": "uema.br",
                "initial": "E",
                "state": "MA",
                "gafam": true,
                "mx": "uema-br.mail.eo.outlook.com.",
                "provider": "Microsoft"
            },
            "geometry": {
                "type": "Point",
                "coordinates": [
                    "-44.79490",
                    "-4.24340"
                ]
            }
        },
        {
            "type": "Feature",
            "properties": {
                "name": "uemasul.edu.br",
                "initial": "E",
                "state": "MA",
                "gafam": true,
                "mx": "alt4.aspmx.l.google.com.",
                "provider": "Google"
            },
            "geometry": {
                "type": "Point",
                "coordinates": [
                    "-47.47835",
                    "-4.94386"
                ]
            }
        },
        {
            "type": "Feature",
            "properties": {
                "name": "uemg.br",
                "initial": "E",
                "state": "MG",
                "gafam": true,
                "mx": "uemg-br.mail.protection.outlook.com.",
                "provider": "Microsoft"
            },
            "geometry": {
                "type": "Point",
                "coordinates": [
                    "-44.91262",
                    "-20.17152"
                ]
            }
        },
        {
            "type": "Feature",
            "properties": {
                "name": "uenf.br",
                "initial": "E",
                "state": "RJ",
                "gafam": true,
                "mx": "alt2.aspmx.l.google.com.",
                "provider": "Google"
            },
            "geometry": {
                "type": "Point",
                "coordinates": [
                    " -41.3018123",
                    "-21.7615512"
                ]
            }
        },
        {
            "type": "Feature",
            "properties": {
                "name": "uenp.edu.br",
                "initial": "E",
                "state": "PR",
                "gafam": true,
                "mx": "alt4.aspmx.l.google.com.",
                "provider": "Google"
            },
            "geometry": {
                "type": "Point",
                "coordinates": [
                    "-49.9741699",
                    "-23.1604204"
                ]
            }
        },
        {
            "type": "Feature",
            "properties": {
                "name": "uepa.br",
                "initial": "E",
                "state": "PA",
                "gafam": true,
                "mx": "alt1.aspmx.l.google.com.",
                "provider": "Google"
            },
            "geometry": {
                "type": "Point",
                "coordinates": [
                    "-48.453894",
                    "-1.428603"
                ]
            }
        },
        {
            "type": "Feature",
            "properties": {
                "name": "uergs.edu.br",
                "initial": "E",
                "state": "RS",
                "gafam": true,
                "mx": "alt2.aspmx.l.google.com.",
                "provider": "Google"
            },
            "geometry": {
                "type": "Point",
                "coordinates": [
                    "-51.81243",
                    "-27.95162"
                ]
            }
        },
        {
            "type": "Feature",
            "properties": {
                "name": "uern.br",
                "initial": "E",
                "state": "RN",
                "gafam": true,
                "mx": "aspmx.l.google.com.",
                "provider": "Google"
            },
            "geometry": {
                "type": "Point",
                "coordinates": [
                    " -37.3443872",
                    "-5.1904332"
                ]
            }
        },
        {
            "type": "Feature",
            "properties": {
                "name": "uerr.edu.br",
                "initial": "E",
                "state": "RR",
                "gafam": true,
                "mx": "aspmx3.googlemail.com.",
                "provider": "Google"
            },
            "geometry": {
                "type": "Point",
                "coordinates": [
                    "-60.65941",
                    "2.83210"
                ]
            }
        },
        {
            "type": "Feature",
            "properties": {
                "name": "uesb.edu.br",
                "initial": "E",
                "state": "BA",
                "gafam": true,
                "mx": "aspmx.l.google.com.",
                "provider": "Google"
            },
            "geometry": {
                "type": "Point",
                "coordinates": [
                    " -40.8414804",
                    "-14.8567487"
                ]
            }
        },
        {
            "type": "Feature",
            "properties": {
                "name": "uesc.br",
                "initial": "E",
                "state": "SC",
                "gafam": true,
                "mx": "alt2.aspmx.l.google.com.",
                "provider": "Google"
            },
            "geometry": {
                "type": "Point",
                "coordinates": [
                    " -39.04602",
                    "-14.793045"
                ]
            }
        },
        {
            "type": "Feature",
            "properties": {
                "name": "uespi.br",
                "initial": "E",
                "state": "PI",
                "gafam": true,
                "mx": "aspmx3.googlemail.com.",
                "provider": "Google"
            },
            "geometry": {
                "type": "Point",
                "coordinates": [
                    " -42.809588",
                    "-5.0896403"
                ]
            }
        },
        {
            "type": "Feature",
            "properties": {
                "name": "uneal.edu.br",
                "initial": "E",
                "state": "AL",
                "gafam": true,
                "mx": "alt3.aspmx.l.google.com.",
                "provider": "Google"
            },
            "geometry": {
                "type": "Point",
                "coordinates": [
                    "-36.64305",
                    "-9.43522"
                ]
            }
        },
        {
            "type": "Feature",
            "properties": {
                "name": "unemat.br",
                "initial": "E",
                "state": "MT",
                "gafam": true,
                "mx": "aspmx2.googlemail.com.",
                "provider": "Google"
            },
            "geometry": {
                "type": "Point",
                "coordinates": [
                    " -57.6847357",
                    "-16.0661001"
                ]
            }
        },
        {
            "type": "Feature",
            "properties": {
                "name": "unesp.br",
                "initial": "E",
                "state": "SP",
                "gafam": true,
                "mx": "alt3.aspmx.l.google.com.",
                "provider": "Google"
            },
            "geometry": {
                "type": "Point",
                "coordinates": [
                    " -46.6333824",
                    "-23.5506507"
                ]
            }
        },
        {
            "type": "Feature",
            "properties": {
                "name": "unespar.edu.br",
                "initial": "E",
                "state": "PR",
                "gafam": true,
                "mx": "unespar-edu-br.mail.protection.outlook.com.",
                "provider": "Microsoft"
            },
            "geometry": {
                "type": "Point",
                "coordinates": [
                    "-51.43273",
                    "-23.56450"
                ]
            }
        },
        {
            "type": "Feature",
            "properties": {
                "name": "unicamp.br",
                "initial": "E",
                "state": "SP",
                "gafam": true,
                "mx": "alt1.aspmx.l.google.com.",
                "provider": "Google"
            },
            "geometry": {
                "type": "Point",
                "coordinates": [
                    "-47.0653",
                    "-22.8168"
                ]
            }
        },
        {
            "type": "Feature",
            "properties": {
                "name": "unicentro.br",
                "initial": "E",
                "state": "PR",
                "gafam": true,
                "mx": "aspmx.l.google.com.",
                "provider": "Google"
            },
            "geometry": {
                "type": "Point",
                "coordinates": [
                    " -51.4622016",
                    "-25.3950986"
                ]
            }
        },
        {
            "type": "Feature",
            "properties": {
                "name": "unimontes.br",
                "initial": "E",
                "state": "MG",
                "gafam": true,
                "mx": "alt2.aspmx.l.google.com.",
                "provider": "Google"
            },
            "geometry": {
                "type": "Point",
                "coordinates": [
                    " -43.8717676",
                    "-16.7273538"
                ]
            }
        },
        {
            "type": "Feature",
            "properties": {
                "name": "unioeste.br",
                "initial": "E",
                "state": "PR",
                "gafam": true,
                "mx": "unioeste-br.mail.protection.outlook.com.",
                "provider": "Microsoft"
            },
            "geometry": {
                "type": "Point",
                "coordinates": [
                    "-54.59593",
                    "-25.43705"
                ]
            }
        },
        {
            "type": "Feature",
            "properties": {
                "name": "unitins.br",
                "initial": "E",
                "state": "TO",
                "gafam": true,
                "mx": "alt2.aspmx.l.google.com.",
                "provider": "Google"
            },
            "geometry": {
                "type": "Point",
                "coordinates": [
                    " -48.3337793",
                    "-10.1835604"
                ]
            }
        },
        {
            "type": "Feature",
            "properties": {
                "name": "upe.br",
                "initial": "E",
                "state": "PE",
                "gafam": true,
                "mx": "alt3.aspmx.l.google.com.",
                "provider": "Google"
            },
            "geometry": {
                "type": "Point",
                "coordinates": [
                    " -34.8979047",
                    "-8.0581077"
                ]
            }
        },
        {
            "type": "Feature",
            "properties": {
                "name": "urca.br",
                "initial": "E",
                "state": "CE",
                "gafam": true,
                "mx": "aspmx2.googlemail.com.",
                "provider": "Google"
            },
            "geometry": {
                "type": "Point",
                "coordinates": [
                    "-39.41606",
                    "-7.23815"
                ]
            }
        },
        {
            "type": "Feature",
            "properties": {
                "name": "usp.br",
                "initial": "E",
                "state": "SP",
                "gafam": true,
                "mx": "aspmx.l.google.com.",
                "provider": "Google"
            },
            "geometry": {
                "type": "Point",
                "coordinates": [
                    "-46.7327",
                    "-23.5629"
                ]
            }
        }
    ]
}